{
	"ImportPath": "bitbucket.org/joseiago/cav-challenge",
	"GoVersion": "go1.12",
	"GodepVersion": "v79",
	"Packages": [
		"./..."
	],
	"Deps": [
		{
			"ImportPath": "github.com/Sirupsen/logrus",
			"Comment": "v1.4.1-2-g9b3cdde",
			"Rev": "9b3cdde74fbe9443d704467498a7dcb61a79de9b"
		},
		{
			"ImportPath": "github.com/gin-contrib/sse",
			"Rev": "5545eab6dad3bbbd6c5ae9186383c2a9d23c0dae"
		},
		{
			"ImportPath": "github.com/gin-gonic/gin",
			"Comment": "v1.3.0-153-g202f8fc",
			"Rev": "202f8fc58af47ab5c8e834662ee7fc46deacc37d"
		},
		{
			"ImportPath": "github.com/gin-gonic/gin/binding",
			"Comment": "v1.3.0-153-g202f8fc",
			"Rev": "202f8fc58af47ab5c8e834662ee7fc46deacc37d"
		},
		{
			"ImportPath": "github.com/gin-gonic/gin/internal/json",
			"Comment": "v1.3.0-153-g202f8fc",
			"Rev": "202f8fc58af47ab5c8e834662ee7fc46deacc37d"
		},
		{
			"ImportPath": "github.com/gin-gonic/gin/render",
			"Comment": "v1.3.0-153-g202f8fc",
			"Rev": "202f8fc58af47ab5c8e834662ee7fc46deacc37d"
		},
		{
			"ImportPath": "github.com/golang/protobuf/proto",
			"Comment": "v1.3.1-4-ge91709a",
			"Rev": "e91709a02e0e8ff8b86b7aa913fdc9ae9498e825"
		},
		{
			"ImportPath": "github.com/json-iterator/go",
			"Comment": "v1.1.6",
			"Rev": "0ff49de124c6f76f8494e194af75bde0f1a49a29"
		},
		{
			"ImportPath": "github.com/konsorten/go-windows-terminal-sequences",
			"Comment": "v1.0.2",
			"Rev": "f55edac94c9bbba5d6182a4be46d86a2c9b5b50e"
		},
		{
			"ImportPath": "github.com/mattn/go-isatty",
			"Comment": "v0.0.7-2-gc1975dc",
			"Rev": "c1975dc15c1d481e8da23f6ed313bb071136b98f"
		},
		{
			"ImportPath": "github.com/modern-go/concurrent",
			"Comment": "1.0.3",
			"Rev": "bacd9c7ef1dd9b15be4a9909b8ac7a4e313eec94"
		},
		{
			"ImportPath": "github.com/modern-go/reflect2",
			"Comment": "v1.0.1",
			"Rev": "94122c33edd36123c84d5368cfb2b69df93a0ec8"
		},
		{
			"ImportPath": "github.com/pkg/errors",
			"Comment": "v0.8.1-24-g27936f6",
			"Rev": "27936f6d90f9c8e1145f11ed52ffffbfdb9e0af7"
		},
		{
			"ImportPath": "github.com/ugorji/go/codec",
			"Comment": "v1.1.4-14-g1d65431",
			"Rev": "1d65431a5776db967ae5481e33b789f9ffcea0ec"
		},
		{
			"ImportPath": "golang.org/x/sys/unix",
			"Rev": "18eb32c0e2f0c2bc8d17842ed4ad41486f349ad4"
		},
		{
			"ImportPath": "gopkg.in/go-playground/validator.v8",
			"Comment": "v8.18.2",
			"Rev": "5f1438d3fca68893a817e4a66806cea46a9e4ebf"
		},
		{
			"ImportPath": "gopkg.in/yaml.v2",
			"Comment": "v2.2.2",
			"Rev": "51d6538a90f86fe93ac480b35f37b2be17fef232"
		}
	]
}
